{
  "LazyVim": { "branch": "main", "commit": "9b4675ddde38fdae09978bd7dbdba83ec91f4d80" },
  "LuaSnip": { "branch": "master", "commit": "8f3d3465ba5c7ade0a8adb41eca5736f291a3fa8" },
  "bufferline.nvim": { "branch": "main", "commit": "73540cb95f8d95aa1af3ed57713c6720c78af915" },
  "catppuccin": { "branch": "main", "commit": "a1439ad7c584efb3d0ce14ccb835967f030450fe" },
  "cmp-buffer": { "branch": "main", "commit": "3022dbc9166796b644a841a02de8dd1cc1d311fa" },
  "cmp-nvim-lsp": { "branch": "main", "commit": "5af77f54de1b16c34b23cba810150689a3a90312" },
  "cmp-path": { "branch": "main", "commit": "91ff86cd9c29299a64f968ebb45846c485725f23" },
  "cmp_luasnip": { "branch": "master", "commit": "05a9ab28b53f71d1aece421ef32fee2cb857a843" },
  "conform.nvim": { "branch": "master", "commit": "4660e534bf7678ee0f85879aa75fdcb6855612c2" },
  "crates.nvim": { "branch": "main", "commit": "f00e11e8282b94f2a2e938d32712c99f0e0bdeb4" },
  "dashboard-nvim": { "branch": "master", "commit": "6d06924b562de6f0bb136edf1bf549afbf6b7d00" },
  "dressing.nvim": { "branch": "master", "commit": "5162edb1442a729a885c45455a07e9a89058be2f" },
  "flash.nvim": { "branch": "main", "commit": "48817af25f51c0590653bbc290866e4890fe1cbe" },
  "friendly-snippets": { "branch": "main", "commit": "ea068f1becd91bcd4591fceb6420d4335e2e14d3" },
  "gitsigns.nvim": { "branch": "main", "commit": "035da036e68e509ed158414416c827d022d914bd" },
  "indent-blankline.nvim": { "branch": "master", "commit": "3d08501caef2329aba5121b753e903904088f7e6" },
  "lazy.nvim": { "branch": "main", "commit": "bef521ac89c8d423f9d092e37b58e8af0c099309" },
  "lsp-inlayhints.nvim": { "branch": "main", "commit": "d981f65c9ae0b6062176f0accb9c151daeda6f16" },
  "lualine.nvim": { "branch": "master", "commit": "0a5a66803c7407767b799067986b4dc3036e1983" },
  "mason-lspconfig.nvim": { "branch": "main", "commit": "273fdde8ac5e51f3a223ba70980e52bbc09d9f6f" },
  "mason.nvim": { "branch": "main", "commit": "751b1fcbf3d3b783fcf8d48865264a9bcd8f9b10" },
  "mini.ai": { "branch": "main", "commit": "98e45e6832351354e41e82b32a80ce7537c20746" },
  "mini.bufremove": { "branch": "main", "commit": "931a3bb514147d9e812767275c4beba6b779b1d3" },
  "mini.comment": { "branch": "main", "commit": "f9f1a646fd3d9df7397aa1b9550a875fe8189eb0" },
  "mini.indentscope": { "branch": "main", "commit": "a8274b6ea2d868198d27bd91a31ed5ea3a6a5744" },
  "mini.pairs": { "branch": "main", "commit": "04f58f2545ed80ac3b52dd4826e93f33e15b2af6" },
  "mini.surround": { "branch": "main", "commit": "a00d69be09e3fe27dfa9e5b0298410d0e148e3e2" },
  "neo-tree.nvim": { "branch": "v3.x", "commit": "7aad1bf3f6b849cbf108e02c55ad4d701cb4d33a" },
  "neoconf.nvim": { "branch": "main", "commit": "ba3503e246ea687732e51f7f9878e653e2e2039b" },
  "neodev.nvim": { "branch": "main", "commit": "ce9a2e8eaba5649b553529c5498acb43a6c317cd" },
  "noice.nvim": { "branch": "main", "commit": "0cbe3f88d038320bdbda3c4c5c95f43a13c3aa12" },
  "nui.nvim": { "branch": "main", "commit": "cbd2668414331c10039278f558630ed19b93e69b" },
  "nvim-cmp": { "branch": "main", "commit": "8f3c541407e691af6163e2447f3af1bd6e17f9a3" },
  "nvim-dap": { "branch": "master", "commit": "6ae8a14828b0f3bff1721a35a1dfd604b6a933bb" },
  "nvim-lint": { "branch": "master", "commit": "f098232d70cebe90e27404928c9bc19ca7a5a7b5" },
  "nvim-lspconfig": { "branch": "master", "commit": "7133e85c3df14a387da8942c094c7edddcdef309" },
  "nvim-notify": { "branch": "master", "commit": "5371f4bfc1f6d3adf4fe9d62cd3a9d44356bfd15" },
  "nvim-spectre": { "branch": "master", "commit": "026394a8458d62c6b7b305c076ce675420dbaa4c" },
  "nvim-treesitter": { "branch": "master", "commit": "0883ff05655117a3fc79ab295a640c4984cfd415" },
  "nvim-treesitter-context": { "branch": "master", "commit": "4fe0a54e86859744968e1a5c7867b49c86855774" },
  "nvim-treesitter-textobjects": { "branch": "master", "commit": "23b820146956b3b681c19e10d3a8bc0cbd9a1d4c" },
  "nvim-ts-autotag": { "branch": "main", "commit": "531f48334c422222aebc888fd36e7d109cb354cd" },
  "nvim-ts-context-commentstring": { "branch": "main", "commit": "a6382f744f584bbf71d0a563af789af7190aabda" },
  "nvim-web-devicons": { "branch": "master", "commit": "beb6367ab8496c9e43f22e0252735fdadae1872d" },
  "persistence.nvim": { "branch": "main", "commit": "4982499c1636eac254b72923ab826ee7827b3084" },
  "plenary.nvim": { "branch": "master", "commit": "08e301982b9a057110ede7a735dd1b5285eb341f" },
  "rustaceanvim": { "branch": "master", "commit": "cd35b0f7fb0c9fe6879b084096230a74fefa4da8" },
  "telescope-fzf-native.nvim": { "branch": "main", "commit": "9ef21b2e6bb6ebeaf349a0781745549bbb870d27" },
  "telescope.nvim": { "branch": "master", "commit": "35f94f0ef32d70e3664a703cefbe71bd1456d899" },
  "todo-comments.nvim": { "branch": "main", "commit": "a7e39ae9e74f2c8c6dc4eea6d40c3971ae84752d" },
  "tokyonight.nvim": { "branch": "main", "commit": "67afeaf7fd6ebba000633e89f63c31694057edde" },
  "trouble.nvim": { "branch": "main", "commit": "b9cf677f20bb2faa2dacfa870b084e568dca9572" },
  "vim-illuminate": { "branch": "master", "commit": "e522e0dd742a83506db0a72e1ced68c9c130f185" },
  "vim-startuptime": { "branch": "master", "commit": "ac2cccb5be617672add1f4f3c0a55ce99ba34e01" },
  "which-key.nvim": { "branch": "main", "commit": "4433e5ec9a507e5097571ed55c02ea9658fb268a" }
}